{
  "ok": true,
  "emoji": [
    {
      "name": "zach",
      "is_alias": 0,
      "alias_for": "",
      "url": "https://emoji.slack-edge.com/T024G5DSY/zach/b601f1e60f31fbc7.jpg",
      "created": 1418325617,
      "team_id": "T024G5DSY",
      "user_id": "U035BJBBY",
      "user_display_name": "yoojin lim",
      "avatar_hash": "5f8bacea3b21",
      "can_delete": false,
      "is_bad": false,
      "synonyms": []
    },
    {
      "name": "zack",
      "is_alias": 0,
      "alias_for": "",
      "url": "https://emoji.slack-edge.com/T024G5DSY/zack/515c3be86ee65d70.png",
      "created": 1652884308,
      "team_id": "T024G5DSY",
      "user_id": "U01R2JN7E1L",
      "user_display_name": "Zeb  Girouard",
      "avatar_hash": "2c6bbf326760",
      "can_delete": true,
      "is_bad": false,
      "synonyms": []
    },
    {
      "name": "zeb",
      "is_alias": 0,
      "alias_for": "",
      "url": "https://emoji.slack-edge.com/T024G5DSY/zeb/033cc89419ba5d76.jpg",
      "created": 1657205538,
      "team_id": "T024G5DSY",
      "user_id": "U02GK4E36H0",
      "user_display_name": "Daniel  Munter",
      "avatar_hash": "293c6bba64c2",
      "can_delete": false,
      "is_bad": false,
      "synonyms": []
    },
    {
      "name": "zeus",
      "is_alias": 0,
      "alias_for": "",
      "url": "https://emoji.slack-edge.com/T024G5DSY/zeus/e6604c1726cdffda.png",
      "created": 1616087883,
      "team_id": "T024G5DSY",
      "user_id": "U01R2JN7E1L",
      "user_display_name": "Zeb  Girouard",
      "avatar_hash": "2c6bbf326760",
      "can_delete": true,
      "is_bad": false,
      "synonyms": []
    },
    {
      "name": "zeus-bond",
      "is_alias": 0,
      "alias_for": "",
      "url": "https://emoji.slack-edge.com/T024G5DSY/zeus-bond/618b068c3f7127b7.png",
      "created": 1614699991,
      "team_id": "T024G5DSY",
      "user_id": "U01AZ7YR7C0",
      "user_display_name": "Calla Feucht",
      "avatar_hash": "7d1a58c53c0f",
      "can_delete": false,
      "is_bad": false,
      "synonyms": []
    },
    {
      "name": "zoe",
      "is_alias": 0,
      "alias_for": "",
      "url": "https://emoji.slack-edge.com/T024G5DSY/zoe/53d864e4686d8fd7.png",
      "created": 1541186128,
      "team_id": "T024G5DSY",
      "user_id": "U7P2YQPQQ",
      "user_display_name": "Cole Romano",
      "avatar_hash": "bce218971b8a",
      "can_delete": false,
      "is_bad": false,
      "synonyms": []
    },
    {
      "name": "zoidberg-dance",
      "is_alias": 0,
      "alias_for": "",
      "url": "https://emoji.slack-edge.com/T024G5DSY/zoidberg-dance/e6604c1726cdffda.gif",
      "created": 1616087883,
      "team_id": "T024G5DSY",
      "user_id": "U01R2JN7E1L",
      "user_display_name": "Zeb  Girouard",
      "avatar_hash": "2c6bbf326760",
      "can_delete": true,
      "is_bad": false,
      "synonyms": []
    },
    {
      "name": "zoolander",
      "is_alias": 0,
      "alias_for": "",
      "url": "https://emoji.slack-edge.com/T024G5DSY/zoolander/07b43a344747b0c7.png",
      "created": 1571167137,
      "team_id": "T024G5DSY",
      "user_id": "UKC2BEYGP",
      "user_display_name": "Doug de Jesus",
      "avatar_hash": "562654114ae8",
      "can_delete": false,
      "is_bad": false,
      "synonyms": []
    },
    {
      "name": "zoomclap",
      "is_alias": 0,
      "alias_for": "",
      "url": "https://emoji.slack-edge.com/T024G5DSY/zoomclap/bdb70c20dcf0d3a0.png",
      "created": 1590000733,
      "team_id": "T024G5DSY",
      "user_id": "U011CRB6ZN1",
      "user_display_name": "Claudio Souza",
      "avatar_hash": "353edb1f0be5",
      "can_delete": false,
      "is_bad": false,
      "synonyms": []
    },
    {
      "name": "ztrain",
      "is_alias": 0,
      "alias_for": "",
      "url": "https://emoji.slack-edge.com/T024G5DSY/ztrain/99428e23b944f3e7.png",
      "created": 1602886671,
      "team_id": "T024G5DSY",
      "user_id": "U9UL0SL8N",
      "user_display_name": "Kenny Lin",
      "avatar_hash": "23caec76315d",
      "can_delete": false,
      "is_bad": false,
      "synonyms": []
    },
    {
      "name": "_zach_",
      "is_alias": 0,
      "alias_for": "",
      "url": "https://emoji.slack-edge.com/T024G5DSY/_zach_/251bb5d185d90f7d.png",
      "created": 1421859600,
      "team_id": "T024G5DSY",
      "user_id": "U035A2WEQ",
      "user_display_name": "kelvin ma",
      "avatar_hash": "ed9ce42ff3e2",
      "can_delete": false,
      "is_bad": false,
      "synonyms": []
    }
  ],
  "disabled_emoji": [
    {
      "name": "feather",
      "is_alias": 0,
      "alias_for": "",
      "url": "https://emoji.slack-edge.com/T024G5DSY/feather/3516f5cd0c5689fd.png",
      "created": 1543434967,
      "team_id": "T024G5DSY",
      "user_id": "U044D3PGM",
      "user_display_name": "chris cho",
      "avatar_hash": "86eeae983891",
      "can_delete": false,
      "is_bad": true,
      "synonyms": []
    },
    {
      "name": "magnet",
      "is_alias": 0,
      "alias_for": "",
      "url": "https://emoji.slack-edge.com/T024G5DSY/magnet/a29f640fbd7d7614.png",
      "created": 1522702791,
      "team_id": "T024G5DSY",
      "user_id": "U9UL0SL8N",
      "user_display_name": "Kenny Lin",
      "avatar_hash": "23caec76315d",
      "can_delete": false,
      "is_bad": true,
      "synonyms": []
    },
    {
      "name": "ninja",
      "is_alias": 0,
      "alias_for": "",
      "url": "https://emoji.slack-edge.com/T024G5DSY/ninja/0be5c368729d39bb.png",
      "created": 1464288971,
      "team_id": "T024G5DSY",
      "user_id": "U088SPRE3",
      "user_display_name": "Maxim Pekarsky",
      "avatar_hash": "ef095ec993cd",
      "can_delete": false,
      "is_bad": true,
      "synonyms": []
    },
    {
      "name": "transgender_flag",
      "is_alias": 0,
      "alias_for": "",
      "url": "https://emoji.slack-edge.com/T024G5DSY/transgender_flag/34b7ebe125857a38.png",
      "created": 1591652288,
      "team_id": "T024G5DSY",
      "user_id": "UGXA2TQMA",
      "user_display_name": "Roger Vera",
      "avatar_hash": "a4fd700df660",
      "can_delete": false,
      "is_bad": true,
      "synonyms": []
    },
    {
      "name": "troll",
      "is_alias": 0,
      "alias_for": "",
      "url": "https://emoji.slack-edge.com/T024G5DSY/troll/25e6f31624577110.png",
      "created": 1616087884,
      "team_id": "T024G5DSY",
      "user_id": "U01R2JN7E1L",
      "user_display_name": "Zeb  Girouard",
      "avatar_hash": "2c6bbf326760",
      "can_delete": true,
      "is_bad": true,
      "synonyms": []
    }
  ],
  "custom_emoji_total_count": 1811,
  "paging": { "count": 100, "total": 1811, "page": 19, "pages": 19 }
}
